ARM GAS  C:\Users\claw541\AppData\Local\Temp\cc6dHeZM.s 			page 1


   1              		.syntax unified
   2              		.cpu cortex-m3
   3              		.fpu softvfp
   4              		.eabi_attribute 20, 1
   5              		.eabi_attribute 21, 1
   6              		.eabi_attribute 23, 3
   7              		.eabi_attribute 24, 1
   8              		.eabi_attribute 25, 1
   9              		.eabi_attribute 26, 1
  10              		.eabi_attribute 30, 6
  11              		.eabi_attribute 34, 1
  12              		.eabi_attribute 18, 4
  13              		.thumb
  14              		.file	"ADC_TempBuf_dma.c"
  15              		.text
  16              	.Ltext0:
  17              		.cfi_sections	.debug_frame
  18              		.global	ADC_TempBuf_DmaHandle
  19              		.data
  20              		.type	ADC_TempBuf_DmaHandle, %object
  21              		.size	ADC_TempBuf_DmaHandle, 1
  22              	ADC_TempBuf_DmaHandle:
  23 0000 FF       		.byte	-1
  24              		.section	.text.ADC_TempBuf_DmaInitialize,"ax",%progbits
  25              		.align	2
  26              		.global	ADC_TempBuf_DmaInitialize
  27              		.thumb
  28              		.thumb_func
  29              		.type	ADC_TempBuf_DmaInitialize, %function
  30              	ADC_TempBuf_DmaInitialize:
  31              	.LFB0:
  32              		.file 1 ".\\Generated_Source\\PSoC5\\ADC_TempBuf_dma.c"
   1:.\Generated_Source\PSoC5/ADC_TempBuf_dma.c **** /***************************************************************************
   2:.\Generated_Source\PSoC5/ADC_TempBuf_dma.c **** * File Name: ADC_TempBuf_dma.c  
   3:.\Generated_Source\PSoC5/ADC_TempBuf_dma.c **** * Version 1.70
   4:.\Generated_Source\PSoC5/ADC_TempBuf_dma.c **** *
   5:.\Generated_Source\PSoC5/ADC_TempBuf_dma.c **** *  Description:
   6:.\Generated_Source\PSoC5/ADC_TempBuf_dma.c **** *   Provides an API for the DMAC component. The API includes functions
   7:.\Generated_Source\PSoC5/ADC_TempBuf_dma.c **** *   for the DMA controller, DMA channels and Transfer Descriptors.
   8:.\Generated_Source\PSoC5/ADC_TempBuf_dma.c **** *
   9:.\Generated_Source\PSoC5/ADC_TempBuf_dma.c **** *
  10:.\Generated_Source\PSoC5/ADC_TempBuf_dma.c **** *   Note:
  11:.\Generated_Source\PSoC5/ADC_TempBuf_dma.c **** *     This module requires the developer to finish or fill in the auto
  12:.\Generated_Source\PSoC5/ADC_TempBuf_dma.c **** *     generated funcions and setup the dma channel and TD's.
  13:.\Generated_Source\PSoC5/ADC_TempBuf_dma.c **** *
  14:.\Generated_Source\PSoC5/ADC_TempBuf_dma.c **** ********************************************************************************
  15:.\Generated_Source\PSoC5/ADC_TempBuf_dma.c **** * Copyright 2008-2010, Cypress Semiconductor Corporation.  All rights reserved.
  16:.\Generated_Source\PSoC5/ADC_TempBuf_dma.c **** * You may use this file only in accordance with the license, terms, conditions, 
  17:.\Generated_Source\PSoC5/ADC_TempBuf_dma.c **** * disclaimers, and limitations in the end user license agreement accompanying 
  18:.\Generated_Source\PSoC5/ADC_TempBuf_dma.c **** * the software package with which this file was provided.
  19:.\Generated_Source\PSoC5/ADC_TempBuf_dma.c **** ********************************************************************************/
  20:.\Generated_Source\PSoC5/ADC_TempBuf_dma.c **** #include <CYLIB.H>
  21:.\Generated_Source\PSoC5/ADC_TempBuf_dma.c **** #include <CYDMAC.H>
  22:.\Generated_Source\PSoC5/ADC_TempBuf_dma.c **** #include <ADC_TempBuf_dma.H>
  23:.\Generated_Source\PSoC5/ADC_TempBuf_dma.c **** 
  24:.\Generated_Source\PSoC5/ADC_TempBuf_dma.c **** 
  25:.\Generated_Source\PSoC5/ADC_TempBuf_dma.c **** 
ARM GAS  C:\Users\claw541\AppData\Local\Temp\cc6dHeZM.s 			page 2


  26:.\Generated_Source\PSoC5/ADC_TempBuf_dma.c **** /****************************************************************************
  27:.\Generated_Source\PSoC5/ADC_TempBuf_dma.c **** * 
  28:.\Generated_Source\PSoC5/ADC_TempBuf_dma.c **** * The following defines are available in Cyfitter.h
  29:.\Generated_Source\PSoC5/ADC_TempBuf_dma.c **** * 
  30:.\Generated_Source\PSoC5/ADC_TempBuf_dma.c **** * 
  31:.\Generated_Source\PSoC5/ADC_TempBuf_dma.c **** * 
  32:.\Generated_Source\PSoC5/ADC_TempBuf_dma.c **** * ADC_TempBuf__DRQ_CTL_REG
  33:.\Generated_Source\PSoC5/ADC_TempBuf_dma.c **** * 
  34:.\Generated_Source\PSoC5/ADC_TempBuf_dma.c **** * 
  35:.\Generated_Source\PSoC5/ADC_TempBuf_dma.c **** * ADC_TempBuf__DRQ_NUMBER
  36:.\Generated_Source\PSoC5/ADC_TempBuf_dma.c **** * 
  37:.\Generated_Source\PSoC5/ADC_TempBuf_dma.c **** * Number of TD's used by this channel.
  38:.\Generated_Source\PSoC5/ADC_TempBuf_dma.c **** * ADC_TempBuf__NUMBEROF_TDS
  39:.\Generated_Source\PSoC5/ADC_TempBuf_dma.c **** * 
  40:.\Generated_Source\PSoC5/ADC_TempBuf_dma.c **** * Priority of this channel.
  41:.\Generated_Source\PSoC5/ADC_TempBuf_dma.c **** * ADC_TempBuf__PRIORITY
  42:.\Generated_Source\PSoC5/ADC_TempBuf_dma.c **** * 
  43:.\Generated_Source\PSoC5/ADC_TempBuf_dma.c **** * True if ADC_TempBuf_TERMIN_SEL is used.
  44:.\Generated_Source\PSoC5/ADC_TempBuf_dma.c **** * ADC_TempBuf__TERMIN_EN
  45:.\Generated_Source\PSoC5/ADC_TempBuf_dma.c **** * 
  46:.\Generated_Source\PSoC5/ADC_TempBuf_dma.c **** * TERMIN interrupt line to signal terminate.
  47:.\Generated_Source\PSoC5/ADC_TempBuf_dma.c **** * ADC_TempBuf__TERMIN_SEL
  48:.\Generated_Source\PSoC5/ADC_TempBuf_dma.c **** * 
  49:.\Generated_Source\PSoC5/ADC_TempBuf_dma.c **** * 
  50:.\Generated_Source\PSoC5/ADC_TempBuf_dma.c **** * True if ADC_TempBuf_TERMOUT0_SEL is used.
  51:.\Generated_Source\PSoC5/ADC_TempBuf_dma.c **** * ADC_TempBuf__TERMOUT0_EN
  52:.\Generated_Source\PSoC5/ADC_TempBuf_dma.c **** * 
  53:.\Generated_Source\PSoC5/ADC_TempBuf_dma.c **** * 
  54:.\Generated_Source\PSoC5/ADC_TempBuf_dma.c **** * TERMOUT0 interrupt line to signal completion.
  55:.\Generated_Source\PSoC5/ADC_TempBuf_dma.c **** * ADC_TempBuf__TERMOUT0_SEL
  56:.\Generated_Source\PSoC5/ADC_TempBuf_dma.c **** * 
  57:.\Generated_Source\PSoC5/ADC_TempBuf_dma.c **** * 
  58:.\Generated_Source\PSoC5/ADC_TempBuf_dma.c **** * True if ADC_TempBuf_TERMOUT1_SEL is used.
  59:.\Generated_Source\PSoC5/ADC_TempBuf_dma.c **** * ADC_TempBuf__TERMOUT1_EN
  60:.\Generated_Source\PSoC5/ADC_TempBuf_dma.c **** * 
  61:.\Generated_Source\PSoC5/ADC_TempBuf_dma.c **** * 
  62:.\Generated_Source\PSoC5/ADC_TempBuf_dma.c **** * TERMOUT1 interrupt line to signal completion.
  63:.\Generated_Source\PSoC5/ADC_TempBuf_dma.c **** * ADC_TempBuf__TERMOUT1_SEL
  64:.\Generated_Source\PSoC5/ADC_TempBuf_dma.c **** * 
  65:.\Generated_Source\PSoC5/ADC_TempBuf_dma.c **** ****************************************************************************/
  66:.\Generated_Source\PSoC5/ADC_TempBuf_dma.c **** 
  67:.\Generated_Source\PSoC5/ADC_TempBuf_dma.c **** 
  68:.\Generated_Source\PSoC5/ADC_TempBuf_dma.c **** /* Zero based index of ADC_TempBuf dma channel */
  69:.\Generated_Source\PSoC5/ADC_TempBuf_dma.c **** uint8 ADC_TempBuf_DmaHandle = DMA_INVALID_CHANNEL;
  70:.\Generated_Source\PSoC5/ADC_TempBuf_dma.c **** 
  71:.\Generated_Source\PSoC5/ADC_TempBuf_dma.c **** /*********************************************************************
  72:.\Generated_Source\PSoC5/ADC_TempBuf_dma.c **** * Function Name: uint8 ADC_TempBuf_DmaInitalize
  73:.\Generated_Source\PSoC5/ADC_TempBuf_dma.c **** **********************************************************************
  74:.\Generated_Source\PSoC5/ADC_TempBuf_dma.c **** * Summary:
  75:.\Generated_Source\PSoC5/ADC_TempBuf_dma.c **** *   Allocates and initialises a channel of the DMAC to be used by the
  76:.\Generated_Source\PSoC5/ADC_TempBuf_dma.c **** *   caller.
  77:.\Generated_Source\PSoC5/ADC_TempBuf_dma.c **** *
  78:.\Generated_Source\PSoC5/ADC_TempBuf_dma.c **** * Parameters:
  79:.\Generated_Source\PSoC5/ADC_TempBuf_dma.c **** *   BurstCount.
  80:.\Generated_Source\PSoC5/ADC_TempBuf_dma.c **** *       
  81:.\Generated_Source\PSoC5/ADC_TempBuf_dma.c **** *       
  82:.\Generated_Source\PSoC5/ADC_TempBuf_dma.c **** *   ReqestPerBurst.
ARM GAS  C:\Users\claw541\AppData\Local\Temp\cc6dHeZM.s 			page 3


  83:.\Generated_Source\PSoC5/ADC_TempBuf_dma.c **** *       
  84:.\Generated_Source\PSoC5/ADC_TempBuf_dma.c **** *       
  85:.\Generated_Source\PSoC5/ADC_TempBuf_dma.c **** *   UpperSrcAddress.
  86:.\Generated_Source\PSoC5/ADC_TempBuf_dma.c **** *       
  87:.\Generated_Source\PSoC5/ADC_TempBuf_dma.c **** *       
  88:.\Generated_Source\PSoC5/ADC_TempBuf_dma.c **** *   UpperDestAddress.
  89:.\Generated_Source\PSoC5/ADC_TempBuf_dma.c **** *       
  90:.\Generated_Source\PSoC5/ADC_TempBuf_dma.c **** *
  91:.\Generated_Source\PSoC5/ADC_TempBuf_dma.c **** * Return:
  92:.\Generated_Source\PSoC5/ADC_TempBuf_dma.c **** *   The channel that can be used by the caller for DMA activity.
  93:.\Generated_Source\PSoC5/ADC_TempBuf_dma.c **** *   DMA_INVALID_CHANNEL (0xFF) if there are no channels left. 
  94:.\Generated_Source\PSoC5/ADC_TempBuf_dma.c **** *
  95:.\Generated_Source\PSoC5/ADC_TempBuf_dma.c **** *
  96:.\Generated_Source\PSoC5/ADC_TempBuf_dma.c **** *******************************************************************/
  97:.\Generated_Source\PSoC5/ADC_TempBuf_dma.c **** uint8 ADC_TempBuf_DmaInitialize(uint8 BurstCount, uint8 ReqestPerBurst, uint16 UpperSrcAddress, uin
  98:.\Generated_Source\PSoC5/ADC_TempBuf_dma.c **** {
  33              		.loc 1 98 0
  34              		.cfi_startproc
  35              		@ args = 0, pretend = 0, frame = 8
  36              		@ frame_needed = 1, uses_anonymous_args = 0
  37 0000 90B5     		push	{r4, r7, lr}
  38              		.cfi_def_cfa_offset 12
  39              		.cfi_offset 4, -12
  40              		.cfi_offset 7, -8
  41              		.cfi_offset 14, -4
  42 0002 85B0     		sub	sp, sp, #20
  43              		.cfi_def_cfa_offset 32
  44 0004 02AF     		add	r7, sp, #8
  45              		.cfi_def_cfa 7, 24
  46 0006 0446     		mov	r4, r0
  47 0008 0846     		mov	r0, r1
  48 000a 1146     		mov	r1, r2
  49 000c 1A46     		mov	r2, r3
  50 000e 2346     		mov	r3, r4
  51 0010 FB71     		strb	r3, [r7, #7]
  52 0012 0346     		mov	r3, r0
  53 0014 BB71     		strb	r3, [r7, #6]
  54 0016 0B46     		mov	r3, r1	@ movhi
  55 0018 BB80     		strh	r3, [r7, #4]	@ movhi
  56 001a 1346     		mov	r3, r2	@ movhi
  57 001c 7B80     		strh	r3, [r7, #2]	@ movhi
  99:.\Generated_Source\PSoC5/ADC_TempBuf_dma.c **** 
 100:.\Generated_Source\PSoC5/ADC_TempBuf_dma.c ****     /* Allocate a DMA channel. */
 101:.\Generated_Source\PSoC5/ADC_TempBuf_dma.c ****     ADC_TempBuf_DmaHandle = (uint8)ADC_TempBuf__DRQ_NUMBER;
  58              		.loc 1 101 0
  59 001e 114B     		ldr	r3, .L3
  60 0020 0122     		movs	r2, #1
  61 0022 1A70     		strb	r2, [r3]
 102:.\Generated_Source\PSoC5/ADC_TempBuf_dma.c **** 
 103:.\Generated_Source\PSoC5/ADC_TempBuf_dma.c ****     /* Configure the channel. */
 104:.\Generated_Source\PSoC5/ADC_TempBuf_dma.c ****     (void)CyDmaChSetConfiguration(ADC_TempBuf_DmaHandle,
  62              		.loc 1 104 0
  63 0024 0F4B     		ldr	r3, .L3
  64 0026 1878     		ldrb	r0, [r3]	@ zero_extendqisi2
  65 0028 F979     		ldrb	r1, [r7, #7]	@ zero_extendqisi2
  66 002a BA79     		ldrb	r2, [r7, #6]	@ zero_extendqisi2
  67 002c 0023     		movs	r3, #0
ARM GAS  C:\Users\claw541\AppData\Local\Temp\cc6dHeZM.s 			page 4


  68 002e 0093     		str	r3, [sp]
  69 0030 0023     		movs	r3, #0
  70 0032 0193     		str	r3, [sp, #4]
  71 0034 0123     		movs	r3, #1
  72 0036 FFF7FEFF 		bl	CyDmaChSetConfiguration
 105:.\Generated_Source\PSoC5/ADC_TempBuf_dma.c ****                                   BurstCount,
 106:.\Generated_Source\PSoC5/ADC_TempBuf_dma.c ****                                   ReqestPerBurst,
 107:.\Generated_Source\PSoC5/ADC_TempBuf_dma.c ****                                   (uint8)ADC_TempBuf__TERMOUT0_SEL,
 108:.\Generated_Source\PSoC5/ADC_TempBuf_dma.c ****                                   (uint8)ADC_TempBuf__TERMOUT1_SEL,
 109:.\Generated_Source\PSoC5/ADC_TempBuf_dma.c ****                                   (uint8)ADC_TempBuf__TERMIN_SEL);
 110:.\Generated_Source\PSoC5/ADC_TempBuf_dma.c **** 
 111:.\Generated_Source\PSoC5/ADC_TempBuf_dma.c ****     /* Set the extended address for the transfers */
 112:.\Generated_Source\PSoC5/ADC_TempBuf_dma.c ****     (void)CyDmaChSetExtendedAddress(ADC_TempBuf_DmaHandle, UpperSrcAddress, UpperDestAddress);
  73              		.loc 1 112 0
  74 003a 0A4B     		ldr	r3, .L3
  75 003c 1978     		ldrb	r1, [r3]	@ zero_extendqisi2
  76 003e BA88     		ldrh	r2, [r7, #4]
  77 0040 7B88     		ldrh	r3, [r7, #2]
  78 0042 0846     		mov	r0, r1
  79 0044 1146     		mov	r1, r2
  80 0046 1A46     		mov	r2, r3
  81 0048 FFF7FEFF 		bl	CyDmaChSetExtendedAddress
 113:.\Generated_Source\PSoC5/ADC_TempBuf_dma.c **** 
 114:.\Generated_Source\PSoC5/ADC_TempBuf_dma.c ****     /* Set the priority for this channel */
 115:.\Generated_Source\PSoC5/ADC_TempBuf_dma.c ****     (void)CyDmaChPriority(ADC_TempBuf_DmaHandle, (uint8)ADC_TempBuf__PRIORITY);
  82              		.loc 1 115 0
  83 004c 054B     		ldr	r3, .L3
  84 004e 1B78     		ldrb	r3, [r3]	@ zero_extendqisi2
  85 0050 1846     		mov	r0, r3
  86 0052 0221     		movs	r1, #2
  87 0054 FFF7FEFF 		bl	CyDmaChPriority
 116:.\Generated_Source\PSoC5/ADC_TempBuf_dma.c ****     
 117:.\Generated_Source\PSoC5/ADC_TempBuf_dma.c ****     return ADC_TempBuf_DmaHandle;
  88              		.loc 1 117 0
  89 0058 024B     		ldr	r3, .L3
  90 005a 1B78     		ldrb	r3, [r3]	@ zero_extendqisi2
 118:.\Generated_Source\PSoC5/ADC_TempBuf_dma.c **** }
  91              		.loc 1 118 0
  92 005c 1846     		mov	r0, r3
  93 005e 0C37     		adds	r7, r7, #12
  94              		.cfi_def_cfa_offset 12
  95 0060 BD46     		mov	sp, r7
  96              		.cfi_def_cfa_register 13
  97              		@ sp needed
  98 0062 90BD     		pop	{r4, r7, pc}
  99              	.L4:
 100              		.align	2
 101              	.L3:
 102 0064 00000000 		.word	ADC_TempBuf_DmaHandle
 103              		.cfi_endproc
 104              	.LFE0:
 105              		.size	ADC_TempBuf_DmaInitialize, .-ADC_TempBuf_DmaInitialize
 106              		.section	.text.ADC_TempBuf_DmaRelease,"ax",%progbits
 107              		.align	2
 108              		.global	ADC_TempBuf_DmaRelease
 109              		.thumb
 110              		.thumb_func
ARM GAS  C:\Users\claw541\AppData\Local\Temp\cc6dHeZM.s 			page 5


 111              		.type	ADC_TempBuf_DmaRelease, %function
 112              	ADC_TempBuf_DmaRelease:
 113              	.LFB1:
 119:.\Generated_Source\PSoC5/ADC_TempBuf_dma.c **** 
 120:.\Generated_Source\PSoC5/ADC_TempBuf_dma.c **** /*********************************************************************
 121:.\Generated_Source\PSoC5/ADC_TempBuf_dma.c **** * Function Name: void ADC_TempBuf_DmaRelease
 122:.\Generated_Source\PSoC5/ADC_TempBuf_dma.c **** **********************************************************************
 123:.\Generated_Source\PSoC5/ADC_TempBuf_dma.c **** * Summary:
 124:.\Generated_Source\PSoC5/ADC_TempBuf_dma.c **** *   Frees the channel associated with ADC_TempBuf.
 125:.\Generated_Source\PSoC5/ADC_TempBuf_dma.c **** *
 126:.\Generated_Source\PSoC5/ADC_TempBuf_dma.c **** *
 127:.\Generated_Source\PSoC5/ADC_TempBuf_dma.c **** * Parameters:
 128:.\Generated_Source\PSoC5/ADC_TempBuf_dma.c **** *   void.
 129:.\Generated_Source\PSoC5/ADC_TempBuf_dma.c **** *
 130:.\Generated_Source\PSoC5/ADC_TempBuf_dma.c **** *
 131:.\Generated_Source\PSoC5/ADC_TempBuf_dma.c **** *
 132:.\Generated_Source\PSoC5/ADC_TempBuf_dma.c **** * Return:
 133:.\Generated_Source\PSoC5/ADC_TempBuf_dma.c **** *   void.
 134:.\Generated_Source\PSoC5/ADC_TempBuf_dma.c **** *
 135:.\Generated_Source\PSoC5/ADC_TempBuf_dma.c **** *******************************************************************/
 136:.\Generated_Source\PSoC5/ADC_TempBuf_dma.c **** void ADC_TempBuf_DmaRelease(void) 
 137:.\Generated_Source\PSoC5/ADC_TempBuf_dma.c **** {
 114              		.loc 1 137 0
 115              		.cfi_startproc
 116              		@ args = 0, pretend = 0, frame = 0
 117              		@ frame_needed = 1, uses_anonymous_args = 0
 118 0000 80B5     		push	{r7, lr}
 119              		.cfi_def_cfa_offset 8
 120              		.cfi_offset 7, -8
 121              		.cfi_offset 14, -4
 122 0002 00AF     		add	r7, sp, #0
 123              		.cfi_def_cfa_register 7
 138:.\Generated_Source\PSoC5/ADC_TempBuf_dma.c ****     /* Disable the channel */
 139:.\Generated_Source\PSoC5/ADC_TempBuf_dma.c ****     (void)CyDmaChDisable(ADC_TempBuf_DmaHandle);
 124              		.loc 1 139 0
 125 0004 024B     		ldr	r3, .L6
 126 0006 1B78     		ldrb	r3, [r3]	@ zero_extendqisi2
 127 0008 1846     		mov	r0, r3
 128 000a FFF7FEFF 		bl	CyDmaChDisable
 140:.\Generated_Source\PSoC5/ADC_TempBuf_dma.c **** }
 129              		.loc 1 140 0
 130 000e 80BD     		pop	{r7, pc}
 131              	.L7:
 132              		.align	2
 133              	.L6:
 134 0010 00000000 		.word	ADC_TempBuf_DmaHandle
 135              		.cfi_endproc
 136              	.LFE1:
 137              		.size	ADC_TempBuf_DmaRelease, .-ADC_TempBuf_DmaRelease
 138              		.text
 139              	.Letext0:
 140              		.file 2 "Generated_Source\\PSoC5/cytypes.h"
 141              		.section	.debug_info,"",%progbits
 142              	.Ldebug_info0:
 143 0000 10010000 		.4byte	0x110
 144 0004 0400     		.2byte	0x4
 145 0006 00000000 		.4byte	.Ldebug_abbrev0
ARM GAS  C:\Users\claw541\AppData\Local\Temp\cc6dHeZM.s 			page 6


 146 000a 04       		.byte	0x4
 147 000b 01       		.uleb128 0x1
 148 000c CF000000 		.4byte	.LASF19
 149 0010 01       		.byte	0x1
 150 0011 64010000 		.4byte	.LASF20
 151 0015 64000000 		.4byte	.LASF21
 152 0019 00000000 		.4byte	.Ldebug_ranges0+0
 153 001d 00000000 		.4byte	0
 154 0021 00000000 		.4byte	.Ldebug_line0
 155 0025 02       		.uleb128 0x2
 156 0026 04       		.byte	0x4
 157 0027 05       		.byte	0x5
 158 0028 696E7400 		.ascii	"int\000"
 159 002c 03       		.uleb128 0x3
 160 002d 04       		.byte	0x4
 161 002e 07       		.byte	0x7
 162 002f 34000000 		.4byte	.LASF0
 163 0033 03       		.uleb128 0x3
 164 0034 01       		.byte	0x1
 165 0035 06       		.byte	0x6
 166 0036 A2010000 		.4byte	.LASF1
 167 003a 03       		.uleb128 0x3
 168 003b 01       		.byte	0x1
 169 003c 08       		.byte	0x8
 170 003d B3000000 		.4byte	.LASF2
 171 0041 03       		.uleb128 0x3
 172 0042 02       		.byte	0x2
 173 0043 05       		.byte	0x5
 174 0044 EE010000 		.4byte	.LASF3
 175 0048 03       		.uleb128 0x3
 176 0049 02       		.byte	0x2
 177 004a 07       		.byte	0x7
 178 004b 8F010000 		.4byte	.LASF4
 179 004f 03       		.uleb128 0x3
 180 0050 04       		.byte	0x4
 181 0051 05       		.byte	0x5
 182 0052 C6000000 		.4byte	.LASF5
 183 0056 03       		.uleb128 0x3
 184 0057 04       		.byte	0x4
 185 0058 07       		.byte	0x7
 186 0059 52000000 		.4byte	.LASF6
 187 005d 03       		.uleb128 0x3
 188 005e 08       		.byte	0x8
 189 005f 05       		.byte	0x5
 190 0060 00000000 		.4byte	.LASF7
 191 0064 03       		.uleb128 0x3
 192 0065 08       		.byte	0x8
 193 0066 07       		.byte	0x7
 194 0067 85000000 		.4byte	.LASF8
 195 006b 03       		.uleb128 0x3
 196 006c 04       		.byte	0x4
 197 006d 07       		.byte	0x7
 198 006e FF010000 		.4byte	.LASF9
 199 0072 03       		.uleb128 0x3
 200 0073 01       		.byte	0x1
 201 0074 08       		.byte	0x8
 202 0075 C1000000 		.4byte	.LASF10
ARM GAS  C:\Users\claw541\AppData\Local\Temp\cc6dHeZM.s 			page 7


 203 0079 04       		.uleb128 0x4
 204 007a 4C000000 		.4byte	.LASF11
 205 007e 02       		.byte	0x2
 206 007f 9201     		.2byte	0x192
 207 0081 3A000000 		.4byte	0x3a
 208 0085 04       		.uleb128 0x4
 209 0086 F8010000 		.4byte	.LASF12
 210 008a 02       		.byte	0x2
 211 008b 9301     		.2byte	0x193
 212 008d 48000000 		.4byte	0x48
 213 0091 03       		.uleb128 0x3
 214 0092 04       		.byte	0x4
 215 0093 04       		.byte	0x4
 216 0094 D7010000 		.4byte	.LASF13
 217 0098 03       		.uleb128 0x3
 218 0099 08       		.byte	0x8
 219 009a 04       		.byte	0x4
 220 009b 5D010000 		.4byte	.LASF14
 221 009f 05       		.uleb128 0x5
 222 00a0 AE010000 		.4byte	.LASF22
 223 00a4 01       		.byte	0x1
 224 00a5 61       		.byte	0x61
 225 00a6 79000000 		.4byte	0x79
 226 00aa 00000000 		.4byte	.LFB0
 227 00ae 68000000 		.4byte	.LFE0-.LFB0
 228 00b2 01       		.uleb128 0x1
 229 00b3 9C       		.byte	0x9c
 230 00b4 F1000000 		.4byte	0xf1
 231 00b8 06       		.uleb128 0x6
 232 00b9 41000000 		.4byte	.LASF15
 233 00bd 01       		.byte	0x1
 234 00be 61       		.byte	0x61
 235 00bf 79000000 		.4byte	0x79
 236 00c3 02       		.uleb128 0x2
 237 00c4 91       		.byte	0x91
 238 00c5 6F       		.sleb128 -17
 239 00c6 06       		.uleb128 0x6
 240 00c7 C8010000 		.4byte	.LASF16
 241 00cb 01       		.byte	0x1
 242 00cc 61       		.byte	0x61
 243 00cd 79000000 		.4byte	0x79
 244 00d1 02       		.uleb128 0x2
 245 00d2 91       		.byte	0x91
 246 00d3 6E       		.sleb128 -18
 247 00d4 06       		.uleb128 0x6
 248 00d5 24000000 		.4byte	.LASF17
 249 00d9 01       		.byte	0x1
 250 00da 61       		.byte	0x61
 251 00db 85000000 		.4byte	0x85
 252 00df 02       		.uleb128 0x2
 253 00e0 91       		.byte	0x91
 254 00e1 6C       		.sleb128 -20
 255 00e2 06       		.uleb128 0x6
 256 00e3 DD010000 		.4byte	.LASF18
 257 00e7 01       		.byte	0x1
 258 00e8 61       		.byte	0x61
 259 00e9 85000000 		.4byte	0x85
ARM GAS  C:\Users\claw541\AppData\Local\Temp\cc6dHeZM.s 			page 8


 260 00ed 02       		.uleb128 0x2
 261 00ee 91       		.byte	0x91
 262 00ef 6A       		.sleb128 -22
 263 00f0 00       		.byte	0
 264 00f1 07       		.uleb128 0x7
 265 00f2 9C000000 		.4byte	.LASF23
 266 00f6 01       		.byte	0x1
 267 00f7 88       		.byte	0x88
 268 00f8 00000000 		.4byte	.LFB1
 269 00fc 14000000 		.4byte	.LFE1-.LFB1
 270 0100 01       		.uleb128 0x1
 271 0101 9C       		.byte	0x9c
 272 0102 08       		.uleb128 0x8
 273 0103 0E000000 		.4byte	.LASF24
 274 0107 01       		.byte	0x1
 275 0108 45       		.byte	0x45
 276 0109 79000000 		.4byte	0x79
 277 010d 05       		.uleb128 0x5
 278 010e 03       		.byte	0x3
 279 010f 00000000 		.4byte	ADC_TempBuf_DmaHandle
 280 0113 00       		.byte	0
 281              		.section	.debug_abbrev,"",%progbits
 282              	.Ldebug_abbrev0:
 283 0000 01       		.uleb128 0x1
 284 0001 11       		.uleb128 0x11
 285 0002 01       		.byte	0x1
 286 0003 25       		.uleb128 0x25
 287 0004 0E       		.uleb128 0xe
 288 0005 13       		.uleb128 0x13
 289 0006 0B       		.uleb128 0xb
 290 0007 03       		.uleb128 0x3
 291 0008 0E       		.uleb128 0xe
 292 0009 1B       		.uleb128 0x1b
 293 000a 0E       		.uleb128 0xe
 294 000b 55       		.uleb128 0x55
 295 000c 17       		.uleb128 0x17
 296 000d 11       		.uleb128 0x11
 297 000e 01       		.uleb128 0x1
 298 000f 10       		.uleb128 0x10
 299 0010 17       		.uleb128 0x17
 300 0011 00       		.byte	0
 301 0012 00       		.byte	0
 302 0013 02       		.uleb128 0x2
 303 0014 24       		.uleb128 0x24
 304 0015 00       		.byte	0
 305 0016 0B       		.uleb128 0xb
 306 0017 0B       		.uleb128 0xb
 307 0018 3E       		.uleb128 0x3e
 308 0019 0B       		.uleb128 0xb
 309 001a 03       		.uleb128 0x3
 310 001b 08       		.uleb128 0x8
 311 001c 00       		.byte	0
 312 001d 00       		.byte	0
 313 001e 03       		.uleb128 0x3
 314 001f 24       		.uleb128 0x24
 315 0020 00       		.byte	0
 316 0021 0B       		.uleb128 0xb
ARM GAS  C:\Users\claw541\AppData\Local\Temp\cc6dHeZM.s 			page 9


 317 0022 0B       		.uleb128 0xb
 318 0023 3E       		.uleb128 0x3e
 319 0024 0B       		.uleb128 0xb
 320 0025 03       		.uleb128 0x3
 321 0026 0E       		.uleb128 0xe
 322 0027 00       		.byte	0
 323 0028 00       		.byte	0
 324 0029 04       		.uleb128 0x4
 325 002a 16       		.uleb128 0x16
 326 002b 00       		.byte	0
 327 002c 03       		.uleb128 0x3
 328 002d 0E       		.uleb128 0xe
 329 002e 3A       		.uleb128 0x3a
 330 002f 0B       		.uleb128 0xb
 331 0030 3B       		.uleb128 0x3b
 332 0031 05       		.uleb128 0x5
 333 0032 49       		.uleb128 0x49
 334 0033 13       		.uleb128 0x13
 335 0034 00       		.byte	0
 336 0035 00       		.byte	0
 337 0036 05       		.uleb128 0x5
 338 0037 2E       		.uleb128 0x2e
 339 0038 01       		.byte	0x1
 340 0039 3F       		.uleb128 0x3f
 341 003a 19       		.uleb128 0x19
 342 003b 03       		.uleb128 0x3
 343 003c 0E       		.uleb128 0xe
 344 003d 3A       		.uleb128 0x3a
 345 003e 0B       		.uleb128 0xb
 346 003f 3B       		.uleb128 0x3b
 347 0040 0B       		.uleb128 0xb
 348 0041 27       		.uleb128 0x27
 349 0042 19       		.uleb128 0x19
 350 0043 49       		.uleb128 0x49
 351 0044 13       		.uleb128 0x13
 352 0045 11       		.uleb128 0x11
 353 0046 01       		.uleb128 0x1
 354 0047 12       		.uleb128 0x12
 355 0048 06       		.uleb128 0x6
 356 0049 40       		.uleb128 0x40
 357 004a 18       		.uleb128 0x18
 358 004b 9642     		.uleb128 0x2116
 359 004d 19       		.uleb128 0x19
 360 004e 01       		.uleb128 0x1
 361 004f 13       		.uleb128 0x13
 362 0050 00       		.byte	0
 363 0051 00       		.byte	0
 364 0052 06       		.uleb128 0x6
 365 0053 05       		.uleb128 0x5
 366 0054 00       		.byte	0
 367 0055 03       		.uleb128 0x3
 368 0056 0E       		.uleb128 0xe
 369 0057 3A       		.uleb128 0x3a
 370 0058 0B       		.uleb128 0xb
 371 0059 3B       		.uleb128 0x3b
 372 005a 0B       		.uleb128 0xb
 373 005b 49       		.uleb128 0x49
ARM GAS  C:\Users\claw541\AppData\Local\Temp\cc6dHeZM.s 			page 10


 374 005c 13       		.uleb128 0x13
 375 005d 02       		.uleb128 0x2
 376 005e 18       		.uleb128 0x18
 377 005f 00       		.byte	0
 378 0060 00       		.byte	0
 379 0061 07       		.uleb128 0x7
 380 0062 2E       		.uleb128 0x2e
 381 0063 00       		.byte	0
 382 0064 3F       		.uleb128 0x3f
 383 0065 19       		.uleb128 0x19
 384 0066 03       		.uleb128 0x3
 385 0067 0E       		.uleb128 0xe
 386 0068 3A       		.uleb128 0x3a
 387 0069 0B       		.uleb128 0xb
 388 006a 3B       		.uleb128 0x3b
 389 006b 0B       		.uleb128 0xb
 390 006c 27       		.uleb128 0x27
 391 006d 19       		.uleb128 0x19
 392 006e 11       		.uleb128 0x11
 393 006f 01       		.uleb128 0x1
 394 0070 12       		.uleb128 0x12
 395 0071 06       		.uleb128 0x6
 396 0072 40       		.uleb128 0x40
 397 0073 18       		.uleb128 0x18
 398 0074 9642     		.uleb128 0x2116
 399 0076 19       		.uleb128 0x19
 400 0077 00       		.byte	0
 401 0078 00       		.byte	0
 402 0079 08       		.uleb128 0x8
 403 007a 34       		.uleb128 0x34
 404 007b 00       		.byte	0
 405 007c 03       		.uleb128 0x3
 406 007d 0E       		.uleb128 0xe
 407 007e 3A       		.uleb128 0x3a
 408 007f 0B       		.uleb128 0xb
 409 0080 3B       		.uleb128 0x3b
 410 0081 0B       		.uleb128 0xb
 411 0082 49       		.uleb128 0x49
 412 0083 13       		.uleb128 0x13
 413 0084 3F       		.uleb128 0x3f
 414 0085 19       		.uleb128 0x19
 415 0086 02       		.uleb128 0x2
 416 0087 18       		.uleb128 0x18
 417 0088 00       		.byte	0
 418 0089 00       		.byte	0
 419 008a 00       		.byte	0
 420              		.section	.debug_aranges,"",%progbits
 421 0000 24000000 		.4byte	0x24
 422 0004 0200     		.2byte	0x2
 423 0006 00000000 		.4byte	.Ldebug_info0
 424 000a 04       		.byte	0x4
 425 000b 00       		.byte	0
 426 000c 0000     		.2byte	0
 427 000e 0000     		.2byte	0
 428 0010 00000000 		.4byte	.LFB0
 429 0014 68000000 		.4byte	.LFE0-.LFB0
 430 0018 00000000 		.4byte	.LFB1
ARM GAS  C:\Users\claw541\AppData\Local\Temp\cc6dHeZM.s 			page 11


 431 001c 14000000 		.4byte	.LFE1-.LFB1
 432 0020 00000000 		.4byte	0
 433 0024 00000000 		.4byte	0
 434              		.section	.debug_ranges,"",%progbits
 435              	.Ldebug_ranges0:
 436 0000 00000000 		.4byte	.LFB0
 437 0004 68000000 		.4byte	.LFE0
 438 0008 00000000 		.4byte	.LFB1
 439 000c 14000000 		.4byte	.LFE1
 440 0010 00000000 		.4byte	0
 441 0014 00000000 		.4byte	0
 442              		.section	.debug_line,"",%progbits
 443              	.Ldebug_line0:
 444 0000 93000000 		.section	.debug_str,"MS",%progbits,1
 444      02006500 
 444      00000201 
 444      FB0E0D00 
 444      01010101 
 445              	.LASF7:
 446 0000 6C6F6E67 		.ascii	"long long int\000"
 446      206C6F6E 
 446      6720696E 
 446      7400
 447              	.LASF24:
 448 000e 4144435F 		.ascii	"ADC_TempBuf_DmaHandle\000"
 448      54656D70 
 448      4275665F 
 448      446D6148 
 448      616E646C 
 449              	.LASF17:
 450 0024 55707065 		.ascii	"UpperSrcAddress\000"
 450      72537263 
 450      41646472 
 450      65737300 
 451              	.LASF0:
 452 0034 756E7369 		.ascii	"unsigned int\000"
 452      676E6564 
 452      20696E74 
 452      00
 453              	.LASF15:
 454 0041 42757273 		.ascii	"BurstCount\000"
 454      74436F75 
 454      6E7400
 455              	.LASF11:
 456 004c 75696E74 		.ascii	"uint8\000"
 456      3800
 457              	.LASF6:
 458 0052 6C6F6E67 		.ascii	"long unsigned int\000"
 458      20756E73 
 458      69676E65 
 458      6420696E 
 458      7400
 459              	.LASF21:
 460 0064 483A5C63 		.ascii	"H:\\compsys 301\\CS301_Class.cydsn\000"
 460      6F6D7073 
 460      79732033 
 460      30315C43 
ARM GAS  C:\Users\claw541\AppData\Local\Temp\cc6dHeZM.s 			page 12


 460      53333031 
 461              	.LASF8:
 462 0085 6C6F6E67 		.ascii	"long long unsigned int\000"
 462      206C6F6E 
 462      6720756E 
 462      7369676E 
 462      65642069 
 463              	.LASF23:
 464 009c 4144435F 		.ascii	"ADC_TempBuf_DmaRelease\000"
 464      54656D70 
 464      4275665F 
 464      446D6152 
 464      656C6561 
 465              	.LASF2:
 466 00b3 756E7369 		.ascii	"unsigned char\000"
 466      676E6564 
 466      20636861 
 466      7200
 467              	.LASF10:
 468 00c1 63686172 		.ascii	"char\000"
 468      00
 469              	.LASF5:
 470 00c6 6C6F6E67 		.ascii	"long int\000"
 470      20696E74 
 470      00
 471              	.LASF19:
 472 00cf 474E5520 		.ascii	"GNU C 4.9.3 20150303 (release) [ARM/embedded-4_9-br"
 472      4320342E 
 472      392E3320 
 472      32303135 
 472      30333033 
 473 0102 616E6368 		.ascii	"anch revision 221220] -mcpu=cortex-m3 -mthumb -g -O"
 473      20726576 
 473      6973696F 
 473      6E203232 
 473      31323230 
 474 0135 30202D66 		.ascii	"0 -ffunction-sections -ffat-lto-objects\000"
 474      66756E63 
 474      74696F6E 
 474      2D736563 
 474      74696F6E 
 475              	.LASF14:
 476 015d 646F7562 		.ascii	"double\000"
 476      6C6500
 477              	.LASF20:
 478 0164 2E5C4765 		.ascii	".\\Generated_Source\\PSoC5\\ADC_TempBuf_dma.c\000"
 478      6E657261 
 478      7465645F 
 478      536F7572 
 478      63655C50 
 479              	.LASF4:
 480 018f 73686F72 		.ascii	"short unsigned int\000"
 480      7420756E 
 480      7369676E 
 480      65642069 
 480      6E7400
 481              	.LASF1:
ARM GAS  C:\Users\claw541\AppData\Local\Temp\cc6dHeZM.s 			page 13


 482 01a2 7369676E 		.ascii	"signed char\000"
 482      65642063 
 482      68617200 
 483              	.LASF22:
 484 01ae 4144435F 		.ascii	"ADC_TempBuf_DmaInitialize\000"
 484      54656D70 
 484      4275665F 
 484      446D6149 
 484      6E697469 
 485              	.LASF16:
 486 01c8 52657165 		.ascii	"ReqestPerBurst\000"
 486      73745065 
 486      72427572 
 486      737400
 487              	.LASF13:
 488 01d7 666C6F61 		.ascii	"float\000"
 488      7400
 489              	.LASF18:
 490 01dd 55707065 		.ascii	"UpperDestAddress\000"
 490      72446573 
 490      74416464 
 490      72657373 
 490      00
 491              	.LASF3:
 492 01ee 73686F72 		.ascii	"short int\000"
 492      7420696E 
 492      7400
 493              	.LASF12:
 494 01f8 75696E74 		.ascii	"uint16\000"
 494      313600
 495              	.LASF9:
 496 01ff 73697A65 		.ascii	"sizetype\000"
 496      74797065 
 496      00
 497              		.ident	"GCC: (GNU Tools for ARM Embedded Processors) 4.9.3 20150303 (release) [ARM/embedded-4_9-br
