ARM GAS  C:\Users\claw541\AppData\Local\Temp\cczhQpB8.s 			page 1


   1              		.syntax unified
   2              		.cpu cortex-m3
   3              		.fpu softvfp
   4              		.eabi_attribute 20, 1
   5              		.eabi_attribute 21, 1
   6              		.eabi_attribute 23, 3
   7              		.eabi_attribute 24, 1
   8              		.eabi_attribute 25, 1
   9              		.eabi_attribute 26, 1
  10              		.eabi_attribute 30, 6
  11              		.eabi_attribute 34, 1
  12              		.eabi_attribute 18, 4
  13              		.thumb
  14              		.file	"M2_D1.c"
  15              		.text
  16              	.Ltext0:
  17              		.cfi_sections	.debug_frame
  18              		.section	.text.M2_D1_Write,"ax",%progbits
  19              		.align	2
  20              		.global	M2_D1_Write
  21              		.thumb
  22              		.thumb_func
  23              		.type	M2_D1_Write, %function
  24              	M2_D1_Write:
  25              	.LFB0:
  26              		.file 1 ".\\Generated_Source\\PSoC5\\M2_D1.c"
   1:.\Generated_Source\PSoC5/M2_D1.c **** /*******************************************************************************
   2:.\Generated_Source\PSoC5/M2_D1.c **** * File Name: M2_D1.c  
   3:.\Generated_Source\PSoC5/M2_D1.c **** * Version 2.20
   4:.\Generated_Source\PSoC5/M2_D1.c **** *
   5:.\Generated_Source\PSoC5/M2_D1.c **** * Description:
   6:.\Generated_Source\PSoC5/M2_D1.c **** *  This file contains API to enable firmware control of a Pins component.
   7:.\Generated_Source\PSoC5/M2_D1.c **** *
   8:.\Generated_Source\PSoC5/M2_D1.c **** * Note:
   9:.\Generated_Source\PSoC5/M2_D1.c **** *
  10:.\Generated_Source\PSoC5/M2_D1.c **** ********************************************************************************
  11:.\Generated_Source\PSoC5/M2_D1.c **** * Copyright 2008-2015, Cypress Semiconductor Corporation.  All rights reserved.
  12:.\Generated_Source\PSoC5/M2_D1.c **** * You may use this file only in accordance with the license, terms, conditions, 
  13:.\Generated_Source\PSoC5/M2_D1.c **** * disclaimers, and limitations in the end user license agreement accompanying 
  14:.\Generated_Source\PSoC5/M2_D1.c **** * the software package with which this file was provided.
  15:.\Generated_Source\PSoC5/M2_D1.c **** *******************************************************************************/
  16:.\Generated_Source\PSoC5/M2_D1.c **** 
  17:.\Generated_Source\PSoC5/M2_D1.c **** #include "cytypes.h"
  18:.\Generated_Source\PSoC5/M2_D1.c **** #include "M2_D1.h"
  19:.\Generated_Source\PSoC5/M2_D1.c **** 
  20:.\Generated_Source\PSoC5/M2_D1.c **** /* APIs are not generated for P15[7:6] on PSoC 5 */
  21:.\Generated_Source\PSoC5/M2_D1.c **** #if !(CY_PSOC5A &&\
  22:.\Generated_Source\PSoC5/M2_D1.c **** 	 M2_D1__PORT == 15 && ((M2_D1__MASK & 0xC0) != 0))
  23:.\Generated_Source\PSoC5/M2_D1.c **** 
  24:.\Generated_Source\PSoC5/M2_D1.c **** 
  25:.\Generated_Source\PSoC5/M2_D1.c **** /*******************************************************************************
  26:.\Generated_Source\PSoC5/M2_D1.c **** * Function Name: M2_D1_Write
  27:.\Generated_Source\PSoC5/M2_D1.c **** ****************************************************************************//**
  28:.\Generated_Source\PSoC5/M2_D1.c **** *
  29:.\Generated_Source\PSoC5/M2_D1.c **** * \brief Writes the value to the physical port (data output register), masking
  30:.\Generated_Source\PSoC5/M2_D1.c **** *  and shifting the bits appropriately. 
  31:.\Generated_Source\PSoC5/M2_D1.c **** *
ARM GAS  C:\Users\claw541\AppData\Local\Temp\cczhQpB8.s 			page 2


  32:.\Generated_Source\PSoC5/M2_D1.c **** * The data output register controls the signal applied to the physical pin in 
  33:.\Generated_Source\PSoC5/M2_D1.c **** * conjunction with the drive mode parameter. This function avoids changing 
  34:.\Generated_Source\PSoC5/M2_D1.c **** * other bits in the port by using the appropriate method (read-modify-write or
  35:.\Generated_Source\PSoC5/M2_D1.c **** * bit banding).
  36:.\Generated_Source\PSoC5/M2_D1.c **** *
  37:.\Generated_Source\PSoC5/M2_D1.c **** * <b>Note</b> This function should not be used on a hardware digital output pin 
  38:.\Generated_Source\PSoC5/M2_D1.c **** * as it is driven by the hardware signal attached to it.
  39:.\Generated_Source\PSoC5/M2_D1.c **** *
  40:.\Generated_Source\PSoC5/M2_D1.c **** * \param value
  41:.\Generated_Source\PSoC5/M2_D1.c **** *  Value to write to the component instance.
  42:.\Generated_Source\PSoC5/M2_D1.c **** *
  43:.\Generated_Source\PSoC5/M2_D1.c **** * \return 
  44:.\Generated_Source\PSoC5/M2_D1.c **** *  None 
  45:.\Generated_Source\PSoC5/M2_D1.c **** *
  46:.\Generated_Source\PSoC5/M2_D1.c **** * \sideeffect
  47:.\Generated_Source\PSoC5/M2_D1.c **** *  If you use read-modify-write operations that are not atomic; the Interrupt 
  48:.\Generated_Source\PSoC5/M2_D1.c **** *  Service Routines (ISR) can cause corruption of this function. An ISR that 
  49:.\Generated_Source\PSoC5/M2_D1.c **** *  interrupts this function and performs writes to the Pins component data 
  50:.\Generated_Source\PSoC5/M2_D1.c **** *  register can cause corrupted port data. To avoid this issue, you should 
  51:.\Generated_Source\PSoC5/M2_D1.c **** *  either use the Per-Pin APIs (primary method) or disable interrupts around 
  52:.\Generated_Source\PSoC5/M2_D1.c **** *  this function.
  53:.\Generated_Source\PSoC5/M2_D1.c **** *
  54:.\Generated_Source\PSoC5/M2_D1.c **** * \funcusage
  55:.\Generated_Source\PSoC5/M2_D1.c **** *  \snippet M2_D1_SUT.c usage_M2_D1_Write
  56:.\Generated_Source\PSoC5/M2_D1.c **** *******************************************************************************/
  57:.\Generated_Source\PSoC5/M2_D1.c **** void M2_D1_Write(uint8 value)
  58:.\Generated_Source\PSoC5/M2_D1.c **** {
  27              		.loc 1 58 0
  28              		.cfi_startproc
  29              		@ args = 0, pretend = 0, frame = 16
  30              		@ frame_needed = 1, uses_anonymous_args = 0
  31              		@ link register save eliminated.
  32 0000 80B4     		push	{r7}
  33              		.cfi_def_cfa_offset 4
  34              		.cfi_offset 7, -4
  35 0002 85B0     		sub	sp, sp, #20
  36              		.cfi_def_cfa_offset 24
  37 0004 00AF     		add	r7, sp, #0
  38              		.cfi_def_cfa_register 7
  39 0006 0346     		mov	r3, r0
  40 0008 FB71     		strb	r3, [r7, #7]
  59:.\Generated_Source\PSoC5/M2_D1.c ****     uint8 staticBits = (M2_D1_DR & (uint8)(~M2_D1_MASK));
  41              		.loc 1 59 0
  42 000a 0B4B     		ldr	r3, .L2
  43 000c 1B78     		ldrb	r3, [r3]
  44 000e DBB2     		uxtb	r3, r3
  45 0010 23F01003 		bic	r3, r3, #16
  46 0014 FB73     		strb	r3, [r7, #15]
  60:.\Generated_Source\PSoC5/M2_D1.c ****     M2_D1_DR = staticBits | ((uint8)(value << M2_D1_SHIFT) & M2_D1_MASK);
  47              		.loc 1 60 0
  48 0016 0849     		ldr	r1, .L2
  49 0018 FB79     		ldrb	r3, [r7, #7]
  50 001a 1B01     		lsls	r3, r3, #4
  51 001c DBB2     		uxtb	r3, r3
  52 001e 03F01003 		and	r3, r3, #16
  53 0022 DAB2     		uxtb	r2, r3
  54 0024 FB7B     		ldrb	r3, [r7, #15]
ARM GAS  C:\Users\claw541\AppData\Local\Temp\cczhQpB8.s 			page 3


  55 0026 1343     		orrs	r3, r3, r2
  56 0028 DBB2     		uxtb	r3, r3
  57 002a 0B70     		strb	r3, [r1]
  61:.\Generated_Source\PSoC5/M2_D1.c **** }
  58              		.loc 1 61 0
  59 002c 1437     		adds	r7, r7, #20
  60              		.cfi_def_cfa_offset 4
  61 002e BD46     		mov	sp, r7
  62              		.cfi_def_cfa_register 13
  63              		@ sp needed
  64 0030 5DF8047B 		ldr	r7, [sp], #4
  65              		.cfi_restore 7
  66              		.cfi_def_cfa_offset 0
  67 0034 7047     		bx	lr
  68              	.L3:
  69 0036 00BF     		.align	2
  70              	.L2:
  71 0038 C0510040 		.word	1073762752
  72              		.cfi_endproc
  73              	.LFE0:
  74              		.size	M2_D1_Write, .-M2_D1_Write
  75              		.section	.text.M2_D1_SetDriveMode,"ax",%progbits
  76              		.align	2
  77              		.global	M2_D1_SetDriveMode
  78              		.thumb
  79              		.thumb_func
  80              		.type	M2_D1_SetDriveMode, %function
  81              	M2_D1_SetDriveMode:
  82              	.LFB1:
  62:.\Generated_Source\PSoC5/M2_D1.c **** 
  63:.\Generated_Source\PSoC5/M2_D1.c **** 
  64:.\Generated_Source\PSoC5/M2_D1.c **** /*******************************************************************************
  65:.\Generated_Source\PSoC5/M2_D1.c **** * Function Name: M2_D1_SetDriveMode
  66:.\Generated_Source\PSoC5/M2_D1.c **** ****************************************************************************//**
  67:.\Generated_Source\PSoC5/M2_D1.c **** *
  68:.\Generated_Source\PSoC5/M2_D1.c **** * \brief Sets the drive mode for each of the Pins component's pins.
  69:.\Generated_Source\PSoC5/M2_D1.c **** * 
  70:.\Generated_Source\PSoC5/M2_D1.c **** * <b>Note</b> This affects all pins in the Pins component instance. Use the
  71:.\Generated_Source\PSoC5/M2_D1.c **** * Per-Pin APIs if you wish to control individual pin's drive modes.
  72:.\Generated_Source\PSoC5/M2_D1.c **** *
  73:.\Generated_Source\PSoC5/M2_D1.c **** * \param mode
  74:.\Generated_Source\PSoC5/M2_D1.c **** *  Mode for the selected signals. Valid options are documented in 
  75:.\Generated_Source\PSoC5/M2_D1.c **** *  \ref driveMode.
  76:.\Generated_Source\PSoC5/M2_D1.c **** *
  77:.\Generated_Source\PSoC5/M2_D1.c **** * \return
  78:.\Generated_Source\PSoC5/M2_D1.c **** *  None
  79:.\Generated_Source\PSoC5/M2_D1.c **** *
  80:.\Generated_Source\PSoC5/M2_D1.c **** * \sideeffect
  81:.\Generated_Source\PSoC5/M2_D1.c **** *  If you use read-modify-write operations that are not atomic, the ISR can
  82:.\Generated_Source\PSoC5/M2_D1.c **** *  cause corruption of this function. An ISR that interrupts this function 
  83:.\Generated_Source\PSoC5/M2_D1.c **** *  and performs writes to the Pins component Drive Mode registers can cause 
  84:.\Generated_Source\PSoC5/M2_D1.c **** *  corrupted port data. To avoid this issue, you should either use the Per-Pin
  85:.\Generated_Source\PSoC5/M2_D1.c **** *  APIs (primary method) or disable interrupts around this function.
  86:.\Generated_Source\PSoC5/M2_D1.c **** *
  87:.\Generated_Source\PSoC5/M2_D1.c **** * \funcusage
  88:.\Generated_Source\PSoC5/M2_D1.c **** *  \snippet M2_D1_SUT.c usage_M2_D1_SetDriveMode
  89:.\Generated_Source\PSoC5/M2_D1.c **** *******************************************************************************/
ARM GAS  C:\Users\claw541\AppData\Local\Temp\cczhQpB8.s 			page 4


  90:.\Generated_Source\PSoC5/M2_D1.c **** void M2_D1_SetDriveMode(uint8 mode)
  91:.\Generated_Source\PSoC5/M2_D1.c **** {
  83              		.loc 1 91 0
  84              		.cfi_startproc
  85              		@ args = 0, pretend = 0, frame = 8
  86              		@ frame_needed = 1, uses_anonymous_args = 0
  87              		@ link register save eliminated.
  88 0000 80B4     		push	{r7}
  89              		.cfi_def_cfa_offset 4
  90              		.cfi_offset 7, -4
  91 0002 83B0     		sub	sp, sp, #12
  92              		.cfi_def_cfa_offset 16
  93 0004 00AF     		add	r7, sp, #0
  94              		.cfi_def_cfa_register 7
  95 0006 0346     		mov	r3, r0
  96 0008 FB71     		strb	r3, [r7, #7]
  92:.\Generated_Source\PSoC5/M2_D1.c **** 	CyPins_SetPinDriveMode(M2_D1_0, mode);
  97              		.loc 1 92 0
  98 000a 0A4B     		ldr	r3, .L5
  99 000c 094A     		ldr	r2, .L5
 100 000e 1278     		ldrb	r2, [r2]
 101 0010 D2B2     		uxtb	r2, r2
 102 0012 D2B2     		uxtb	r2, r2
 103 0014 22F00E02 		bic	r2, r2, #14
 104 0018 D1B2     		uxtb	r1, r2
 105 001a FA79     		ldrb	r2, [r7, #7]	@ zero_extendqisi2
 106 001c 02F00E02 		and	r2, r2, #14
 107 0020 D2B2     		uxtb	r2, r2
 108 0022 0A43     		orrs	r2, r2, r1
 109 0024 D2B2     		uxtb	r2, r2
 110 0026 D2B2     		uxtb	r2, r2
 111 0028 1A70     		strb	r2, [r3]
  93:.\Generated_Source\PSoC5/M2_D1.c **** }
 112              		.loc 1 93 0
 113 002a 0C37     		adds	r7, r7, #12
 114              		.cfi_def_cfa_offset 4
 115 002c BD46     		mov	sp, r7
 116              		.cfi_def_cfa_register 13
 117              		@ sp needed
 118 002e 5DF8047B 		ldr	r7, [sp], #4
 119              		.cfi_restore 7
 120              		.cfi_def_cfa_offset 0
 121 0032 7047     		bx	lr
 122              	.L6:
 123              		.align	2
 124              	.L5:
 125 0034 64500040 		.word	1073762404
 126              		.cfi_endproc
 127              	.LFE1:
 128              		.size	M2_D1_SetDriveMode, .-M2_D1_SetDriveMode
 129              		.section	.text.M2_D1_Read,"ax",%progbits
 130              		.align	2
 131              		.global	M2_D1_Read
 132              		.thumb
 133              		.thumb_func
 134              		.type	M2_D1_Read, %function
 135              	M2_D1_Read:
ARM GAS  C:\Users\claw541\AppData\Local\Temp\cczhQpB8.s 			page 5


 136              	.LFB2:
  94:.\Generated_Source\PSoC5/M2_D1.c **** 
  95:.\Generated_Source\PSoC5/M2_D1.c **** 
  96:.\Generated_Source\PSoC5/M2_D1.c **** /*******************************************************************************
  97:.\Generated_Source\PSoC5/M2_D1.c **** * Function Name: M2_D1_Read
  98:.\Generated_Source\PSoC5/M2_D1.c **** ****************************************************************************//**
  99:.\Generated_Source\PSoC5/M2_D1.c **** *
 100:.\Generated_Source\PSoC5/M2_D1.c **** * \brief Reads the associated physical port (pin status register) and masks 
 101:.\Generated_Source\PSoC5/M2_D1.c **** *  the required bits according to the width and bit position of the component
 102:.\Generated_Source\PSoC5/M2_D1.c **** *  instance. 
 103:.\Generated_Source\PSoC5/M2_D1.c **** *
 104:.\Generated_Source\PSoC5/M2_D1.c **** * The pin's status register returns the current logic level present on the 
 105:.\Generated_Source\PSoC5/M2_D1.c **** * physical pin.
 106:.\Generated_Source\PSoC5/M2_D1.c **** *
 107:.\Generated_Source\PSoC5/M2_D1.c **** * \return 
 108:.\Generated_Source\PSoC5/M2_D1.c **** *  The current value for the pins in the component as a right justified number.
 109:.\Generated_Source\PSoC5/M2_D1.c **** *
 110:.\Generated_Source\PSoC5/M2_D1.c **** * \funcusage
 111:.\Generated_Source\PSoC5/M2_D1.c **** *  \snippet M2_D1_SUT.c usage_M2_D1_Read  
 112:.\Generated_Source\PSoC5/M2_D1.c **** *******************************************************************************/
 113:.\Generated_Source\PSoC5/M2_D1.c **** uint8 M2_D1_Read(void)
 114:.\Generated_Source\PSoC5/M2_D1.c **** {
 137              		.loc 1 114 0
 138              		.cfi_startproc
 139              		@ args = 0, pretend = 0, frame = 0
 140              		@ frame_needed = 1, uses_anonymous_args = 0
 141              		@ link register save eliminated.
 142 0000 80B4     		push	{r7}
 143              		.cfi_def_cfa_offset 4
 144              		.cfi_offset 7, -4
 145 0002 00AF     		add	r7, sp, #0
 146              		.cfi_def_cfa_register 7
 115:.\Generated_Source\PSoC5/M2_D1.c ****     return (M2_D1_PS & M2_D1_MASK) >> M2_D1_SHIFT;
 147              		.loc 1 115 0
 148 0004 054B     		ldr	r3, .L9
 149 0006 1B78     		ldrb	r3, [r3]
 150 0008 DBB2     		uxtb	r3, r3
 151 000a 03F01003 		and	r3, r3, #16
 152 000e 1B09     		lsrs	r3, r3, #4
 153 0010 DBB2     		uxtb	r3, r3
 116:.\Generated_Source\PSoC5/M2_D1.c **** }
 154              		.loc 1 116 0
 155 0012 1846     		mov	r0, r3
 156 0014 BD46     		mov	sp, r7
 157              		.cfi_def_cfa_register 13
 158              		@ sp needed
 159 0016 5DF8047B 		ldr	r7, [sp], #4
 160              		.cfi_restore 7
 161              		.cfi_def_cfa_offset 0
 162 001a 7047     		bx	lr
 163              	.L10:
 164              		.align	2
 165              	.L9:
 166 001c C1510040 		.word	1073762753
 167              		.cfi_endproc
 168              	.LFE2:
 169              		.size	M2_D1_Read, .-M2_D1_Read
ARM GAS  C:\Users\claw541\AppData\Local\Temp\cczhQpB8.s 			page 6


 170              		.section	.text.M2_D1_ReadDataReg,"ax",%progbits
 171              		.align	2
 172              		.global	M2_D1_ReadDataReg
 173              		.thumb
 174              		.thumb_func
 175              		.type	M2_D1_ReadDataReg, %function
 176              	M2_D1_ReadDataReg:
 177              	.LFB3:
 117:.\Generated_Source\PSoC5/M2_D1.c **** 
 118:.\Generated_Source\PSoC5/M2_D1.c **** 
 119:.\Generated_Source\PSoC5/M2_D1.c **** /*******************************************************************************
 120:.\Generated_Source\PSoC5/M2_D1.c **** * Function Name: M2_D1_ReadDataReg
 121:.\Generated_Source\PSoC5/M2_D1.c **** ****************************************************************************//**
 122:.\Generated_Source\PSoC5/M2_D1.c **** *
 123:.\Generated_Source\PSoC5/M2_D1.c **** * \brief Reads the associated physical port's data output register and masks 
 124:.\Generated_Source\PSoC5/M2_D1.c **** *  the correct bits according to the width and bit position of the component 
 125:.\Generated_Source\PSoC5/M2_D1.c **** *  instance. 
 126:.\Generated_Source\PSoC5/M2_D1.c **** *
 127:.\Generated_Source\PSoC5/M2_D1.c **** * The data output register controls the signal applied to the physical pin in 
 128:.\Generated_Source\PSoC5/M2_D1.c **** * conjunction with the drive mode parameter. This is not the same as the 
 129:.\Generated_Source\PSoC5/M2_D1.c **** * preferred M2_D1_Read() API because the 
 130:.\Generated_Source\PSoC5/M2_D1.c **** * M2_D1_ReadDataReg() reads the data register instead of the status 
 131:.\Generated_Source\PSoC5/M2_D1.c **** * register. For output pins this is a useful function to determine the value 
 132:.\Generated_Source\PSoC5/M2_D1.c **** * just written to the pin.
 133:.\Generated_Source\PSoC5/M2_D1.c **** *
 134:.\Generated_Source\PSoC5/M2_D1.c **** * \return 
 135:.\Generated_Source\PSoC5/M2_D1.c **** *  The current value of the data register masked and shifted into a right 
 136:.\Generated_Source\PSoC5/M2_D1.c **** *  justified number for the component instance.
 137:.\Generated_Source\PSoC5/M2_D1.c **** *
 138:.\Generated_Source\PSoC5/M2_D1.c **** * \funcusage
 139:.\Generated_Source\PSoC5/M2_D1.c **** *  \snippet M2_D1_SUT.c usage_M2_D1_ReadDataReg 
 140:.\Generated_Source\PSoC5/M2_D1.c **** *******************************************************************************/
 141:.\Generated_Source\PSoC5/M2_D1.c **** uint8 M2_D1_ReadDataReg(void)
 142:.\Generated_Source\PSoC5/M2_D1.c **** {
 178              		.loc 1 142 0
 179              		.cfi_startproc
 180              		@ args = 0, pretend = 0, frame = 0
 181              		@ frame_needed = 1, uses_anonymous_args = 0
 182              		@ link register save eliminated.
 183 0000 80B4     		push	{r7}
 184              		.cfi_def_cfa_offset 4
 185              		.cfi_offset 7, -4
 186 0002 00AF     		add	r7, sp, #0
 187              		.cfi_def_cfa_register 7
 143:.\Generated_Source\PSoC5/M2_D1.c ****     return (M2_D1_DR & M2_D1_MASK) >> M2_D1_SHIFT;
 188              		.loc 1 143 0
 189 0004 054B     		ldr	r3, .L13
 190 0006 1B78     		ldrb	r3, [r3]
 191 0008 DBB2     		uxtb	r3, r3
 192 000a 03F01003 		and	r3, r3, #16
 193 000e 1B09     		lsrs	r3, r3, #4
 194 0010 DBB2     		uxtb	r3, r3
 144:.\Generated_Source\PSoC5/M2_D1.c **** }
 195              		.loc 1 144 0
 196 0012 1846     		mov	r0, r3
 197 0014 BD46     		mov	sp, r7
 198              		.cfi_def_cfa_register 13
ARM GAS  C:\Users\claw541\AppData\Local\Temp\cczhQpB8.s 			page 7


 199              		@ sp needed
 200 0016 5DF8047B 		ldr	r7, [sp], #4
 201              		.cfi_restore 7
 202              		.cfi_def_cfa_offset 0
 203 001a 7047     		bx	lr
 204              	.L14:
 205              		.align	2
 206              	.L13:
 207 001c C0510040 		.word	1073762752
 208              		.cfi_endproc
 209              	.LFE3:
 210              		.size	M2_D1_ReadDataReg, .-M2_D1_ReadDataReg
 211              		.text
 212              	.Letext0:
 213              		.file 2 ".\\Generated_Source\\PSoC5\\cytypes.h"
 214              		.section	.debug_info,"",%progbits
 215              	.Ldebug_info0:
 216 0000 1A010000 		.4byte	0x11a
 217 0004 0400     		.2byte	0x4
 218 0006 00000000 		.4byte	.Ldebug_abbrev0
 219 000a 04       		.byte	0x4
 220 000b 01       		.uleb128 0x1
 221 000c 32000000 		.4byte	.LASF20
 222 0010 01       		.byte	0x1
 223 0011 7B010000 		.4byte	.LASF21
 224 0015 00000000 		.4byte	.LASF22
 225 0019 00000000 		.4byte	.Ldebug_ranges0+0
 226 001d 00000000 		.4byte	0
 227 0021 00000000 		.4byte	.Ldebug_line0
 228 0025 02       		.uleb128 0x2
 229 0026 01       		.byte	0x1
 230 0027 06       		.byte	0x6
 231 0028 AB010000 		.4byte	.LASF0
 232 002c 02       		.uleb128 0x2
 233 002d 01       		.byte	0x1
 234 002e 08       		.byte	0x8
 235 002f C6000000 		.4byte	.LASF1
 236 0033 02       		.uleb128 0x2
 237 0034 02       		.byte	0x2
 238 0035 05       		.byte	0x5
 239 0036 23010000 		.4byte	.LASF2
 240 003a 02       		.uleb128 0x2
 241 003b 02       		.byte	0x2
 242 003c 07       		.byte	0x7
 243 003d FE000000 		.4byte	.LASF3
 244 0041 02       		.uleb128 0x2
 245 0042 04       		.byte	0x4
 246 0043 05       		.byte	0x5
 247 0044 A2010000 		.4byte	.LASF4
 248 0048 02       		.uleb128 0x2
 249 0049 04       		.byte	0x4
 250 004a 07       		.byte	0x7
 251 004b EC000000 		.4byte	.LASF5
 252 004f 02       		.uleb128 0x2
 253 0050 08       		.byte	0x8
 254 0051 05       		.byte	0x5
 255 0052 68010000 		.4byte	.LASF6
ARM GAS  C:\Users\claw541\AppData\Local\Temp\cczhQpB8.s 			page 8


 256 0056 02       		.uleb128 0x2
 257 0057 08       		.byte	0x8
 258 0058 07       		.byte	0x7
 259 0059 4C010000 		.4byte	.LASF7
 260 005d 03       		.uleb128 0x3
 261 005e 04       		.byte	0x4
 262 005f 05       		.byte	0x5
 263 0060 696E7400 		.ascii	"int\000"
 264 0064 02       		.uleb128 0x2
 265 0065 04       		.byte	0x4
 266 0066 07       		.byte	0x7
 267 0067 3F010000 		.4byte	.LASF8
 268 006b 04       		.uleb128 0x4
 269 006c 9C010000 		.4byte	.LASF12
 270 0070 02       		.byte	0x2
 271 0071 9201     		.2byte	0x192
 272 0073 2C000000 		.4byte	0x2c
 273 0077 02       		.uleb128 0x2
 274 0078 04       		.byte	0x4
 275 0079 04       		.byte	0x4
 276 007a C0000000 		.4byte	.LASF9
 277 007e 02       		.uleb128 0x2
 278 007f 08       		.byte	0x8
 279 0080 04       		.byte	0x4
 280 0081 11010000 		.4byte	.LASF10
 281 0085 02       		.uleb128 0x2
 282 0086 01       		.byte	0x1
 283 0087 08       		.byte	0x8
 284 0088 76010000 		.4byte	.LASF11
 285 008c 04       		.uleb128 0x4
 286 008d E7000000 		.4byte	.LASF13
 287 0091 02       		.byte	0x2
 288 0092 3C02     		.2byte	0x23c
 289 0094 98000000 		.4byte	0x98
 290 0098 05       		.uleb128 0x5
 291 0099 6B000000 		.4byte	0x6b
 292 009d 06       		.uleb128 0x6
 293 009e B7010000 		.4byte	.LASF14
 294 00a2 01       		.byte	0x1
 295 00a3 39       		.byte	0x39
 296 00a4 00000000 		.4byte	.LFB0
 297 00a8 3C000000 		.4byte	.LFE0-.LFB0
 298 00ac 01       		.uleb128 0x1
 299 00ad 9C       		.byte	0x9c
 300 00ae CF000000 		.4byte	0xcf
 301 00b2 07       		.uleb128 0x7
 302 00b3 21000000 		.4byte	.LASF16
 303 00b7 01       		.byte	0x1
 304 00b8 39       		.byte	0x39
 305 00b9 6B000000 		.4byte	0x6b
 306 00bd 02       		.uleb128 0x2
 307 00be 91       		.byte	0x91
 308 00bf 6F       		.sleb128 -17
 309 00c0 08       		.uleb128 0x8
 310 00c1 27000000 		.4byte	.LASF23
 311 00c5 01       		.byte	0x1
 312 00c6 3B       		.byte	0x3b
ARM GAS  C:\Users\claw541\AppData\Local\Temp\cczhQpB8.s 			page 9


 313 00c7 6B000000 		.4byte	0x6b
 314 00cb 02       		.uleb128 0x2
 315 00cc 91       		.byte	0x91
 316 00cd 77       		.sleb128 -9
 317 00ce 00       		.byte	0
 318 00cf 06       		.uleb128 0x6
 319 00d0 D4000000 		.4byte	.LASF15
 320 00d4 01       		.byte	0x1
 321 00d5 5A       		.byte	0x5a
 322 00d6 00000000 		.4byte	.LFB1
 323 00da 38000000 		.4byte	.LFE1-.LFB1
 324 00de 01       		.uleb128 0x1
 325 00df 9C       		.byte	0x9c
 326 00e0 F3000000 		.4byte	0xf3
 327 00e4 07       		.uleb128 0x7
 328 00e5 63010000 		.4byte	.LASF17
 329 00e9 01       		.byte	0x1
 330 00ea 5A       		.byte	0x5a
 331 00eb 6B000000 		.4byte	0x6b
 332 00ef 02       		.uleb128 0x2
 333 00f0 91       		.byte	0x91
 334 00f1 77       		.sleb128 -9
 335 00f2 00       		.byte	0
 336 00f3 09       		.uleb128 0x9
 337 00f4 18010000 		.4byte	.LASF18
 338 00f8 01       		.byte	0x1
 339 00f9 71       		.byte	0x71
 340 00fa 6B000000 		.4byte	0x6b
 341 00fe 00000000 		.4byte	.LFB2
 342 0102 20000000 		.4byte	.LFE2-.LFB2
 343 0106 01       		.uleb128 0x1
 344 0107 9C       		.byte	0x9c
 345 0108 09       		.uleb128 0x9
 346 0109 2D010000 		.4byte	.LASF19
 347 010d 01       		.byte	0x1
 348 010e 8D       		.byte	0x8d
 349 010f 6B000000 		.4byte	0x6b
 350 0113 00000000 		.4byte	.LFB3
 351 0117 20000000 		.4byte	.LFE3-.LFB3
 352 011b 01       		.uleb128 0x1
 353 011c 9C       		.byte	0x9c
 354 011d 00       		.byte	0
 355              		.section	.debug_abbrev,"",%progbits
 356              	.Ldebug_abbrev0:
 357 0000 01       		.uleb128 0x1
 358 0001 11       		.uleb128 0x11
 359 0002 01       		.byte	0x1
 360 0003 25       		.uleb128 0x25
 361 0004 0E       		.uleb128 0xe
 362 0005 13       		.uleb128 0x13
 363 0006 0B       		.uleb128 0xb
 364 0007 03       		.uleb128 0x3
 365 0008 0E       		.uleb128 0xe
 366 0009 1B       		.uleb128 0x1b
 367 000a 0E       		.uleb128 0xe
 368 000b 55       		.uleb128 0x55
 369 000c 17       		.uleb128 0x17
ARM GAS  C:\Users\claw541\AppData\Local\Temp\cczhQpB8.s 			page 10


 370 000d 11       		.uleb128 0x11
 371 000e 01       		.uleb128 0x1
 372 000f 10       		.uleb128 0x10
 373 0010 17       		.uleb128 0x17
 374 0011 00       		.byte	0
 375 0012 00       		.byte	0
 376 0013 02       		.uleb128 0x2
 377 0014 24       		.uleb128 0x24
 378 0015 00       		.byte	0
 379 0016 0B       		.uleb128 0xb
 380 0017 0B       		.uleb128 0xb
 381 0018 3E       		.uleb128 0x3e
 382 0019 0B       		.uleb128 0xb
 383 001a 03       		.uleb128 0x3
 384 001b 0E       		.uleb128 0xe
 385 001c 00       		.byte	0
 386 001d 00       		.byte	0
 387 001e 03       		.uleb128 0x3
 388 001f 24       		.uleb128 0x24
 389 0020 00       		.byte	0
 390 0021 0B       		.uleb128 0xb
 391 0022 0B       		.uleb128 0xb
 392 0023 3E       		.uleb128 0x3e
 393 0024 0B       		.uleb128 0xb
 394 0025 03       		.uleb128 0x3
 395 0026 08       		.uleb128 0x8
 396 0027 00       		.byte	0
 397 0028 00       		.byte	0
 398 0029 04       		.uleb128 0x4
 399 002a 16       		.uleb128 0x16
 400 002b 00       		.byte	0
 401 002c 03       		.uleb128 0x3
 402 002d 0E       		.uleb128 0xe
 403 002e 3A       		.uleb128 0x3a
 404 002f 0B       		.uleb128 0xb
 405 0030 3B       		.uleb128 0x3b
 406 0031 05       		.uleb128 0x5
 407 0032 49       		.uleb128 0x49
 408 0033 13       		.uleb128 0x13
 409 0034 00       		.byte	0
 410 0035 00       		.byte	0
 411 0036 05       		.uleb128 0x5
 412 0037 35       		.uleb128 0x35
 413 0038 00       		.byte	0
 414 0039 49       		.uleb128 0x49
 415 003a 13       		.uleb128 0x13
 416 003b 00       		.byte	0
 417 003c 00       		.byte	0
 418 003d 06       		.uleb128 0x6
 419 003e 2E       		.uleb128 0x2e
 420 003f 01       		.byte	0x1
 421 0040 3F       		.uleb128 0x3f
 422 0041 19       		.uleb128 0x19
 423 0042 03       		.uleb128 0x3
 424 0043 0E       		.uleb128 0xe
 425 0044 3A       		.uleb128 0x3a
 426 0045 0B       		.uleb128 0xb
ARM GAS  C:\Users\claw541\AppData\Local\Temp\cczhQpB8.s 			page 11


 427 0046 3B       		.uleb128 0x3b
 428 0047 0B       		.uleb128 0xb
 429 0048 27       		.uleb128 0x27
 430 0049 19       		.uleb128 0x19
 431 004a 11       		.uleb128 0x11
 432 004b 01       		.uleb128 0x1
 433 004c 12       		.uleb128 0x12
 434 004d 06       		.uleb128 0x6
 435 004e 40       		.uleb128 0x40
 436 004f 18       		.uleb128 0x18
 437 0050 9742     		.uleb128 0x2117
 438 0052 19       		.uleb128 0x19
 439 0053 01       		.uleb128 0x1
 440 0054 13       		.uleb128 0x13
 441 0055 00       		.byte	0
 442 0056 00       		.byte	0
 443 0057 07       		.uleb128 0x7
 444 0058 05       		.uleb128 0x5
 445 0059 00       		.byte	0
 446 005a 03       		.uleb128 0x3
 447 005b 0E       		.uleb128 0xe
 448 005c 3A       		.uleb128 0x3a
 449 005d 0B       		.uleb128 0xb
 450 005e 3B       		.uleb128 0x3b
 451 005f 0B       		.uleb128 0xb
 452 0060 49       		.uleb128 0x49
 453 0061 13       		.uleb128 0x13
 454 0062 02       		.uleb128 0x2
 455 0063 18       		.uleb128 0x18
 456 0064 00       		.byte	0
 457 0065 00       		.byte	0
 458 0066 08       		.uleb128 0x8
 459 0067 34       		.uleb128 0x34
 460 0068 00       		.byte	0
 461 0069 03       		.uleb128 0x3
 462 006a 0E       		.uleb128 0xe
 463 006b 3A       		.uleb128 0x3a
 464 006c 0B       		.uleb128 0xb
 465 006d 3B       		.uleb128 0x3b
 466 006e 0B       		.uleb128 0xb
 467 006f 49       		.uleb128 0x49
 468 0070 13       		.uleb128 0x13
 469 0071 02       		.uleb128 0x2
 470 0072 18       		.uleb128 0x18
 471 0073 00       		.byte	0
 472 0074 00       		.byte	0
 473 0075 09       		.uleb128 0x9
 474 0076 2E       		.uleb128 0x2e
 475 0077 00       		.byte	0
 476 0078 3F       		.uleb128 0x3f
 477 0079 19       		.uleb128 0x19
 478 007a 03       		.uleb128 0x3
 479 007b 0E       		.uleb128 0xe
 480 007c 3A       		.uleb128 0x3a
 481 007d 0B       		.uleb128 0xb
 482 007e 3B       		.uleb128 0x3b
 483 007f 0B       		.uleb128 0xb
ARM GAS  C:\Users\claw541\AppData\Local\Temp\cczhQpB8.s 			page 12


 484 0080 27       		.uleb128 0x27
 485 0081 19       		.uleb128 0x19
 486 0082 49       		.uleb128 0x49
 487 0083 13       		.uleb128 0x13
 488 0084 11       		.uleb128 0x11
 489 0085 01       		.uleb128 0x1
 490 0086 12       		.uleb128 0x12
 491 0087 06       		.uleb128 0x6
 492 0088 40       		.uleb128 0x40
 493 0089 18       		.uleb128 0x18
 494 008a 9742     		.uleb128 0x2117
 495 008c 19       		.uleb128 0x19
 496 008d 00       		.byte	0
 497 008e 00       		.byte	0
 498 008f 00       		.byte	0
 499              		.section	.debug_aranges,"",%progbits
 500 0000 34000000 		.4byte	0x34
 501 0004 0200     		.2byte	0x2
 502 0006 00000000 		.4byte	.Ldebug_info0
 503 000a 04       		.byte	0x4
 504 000b 00       		.byte	0
 505 000c 0000     		.2byte	0
 506 000e 0000     		.2byte	0
 507 0010 00000000 		.4byte	.LFB0
 508 0014 3C000000 		.4byte	.LFE0-.LFB0
 509 0018 00000000 		.4byte	.LFB1
 510 001c 38000000 		.4byte	.LFE1-.LFB1
 511 0020 00000000 		.4byte	.LFB2
 512 0024 20000000 		.4byte	.LFE2-.LFB2
 513 0028 00000000 		.4byte	.LFB3
 514 002c 20000000 		.4byte	.LFE3-.LFB3
 515 0030 00000000 		.4byte	0
 516 0034 00000000 		.4byte	0
 517              		.section	.debug_ranges,"",%progbits
 518              	.Ldebug_ranges0:
 519 0000 00000000 		.4byte	.LFB0
 520 0004 3C000000 		.4byte	.LFE0
 521 0008 00000000 		.4byte	.LFB1
 522 000c 38000000 		.4byte	.LFE1
 523 0010 00000000 		.4byte	.LFB2
 524 0014 20000000 		.4byte	.LFE2
 525 0018 00000000 		.4byte	.LFB3
 526 001c 20000000 		.4byte	.LFE3
 527 0020 00000000 		.4byte	0
 528 0024 00000000 		.4byte	0
 529              		.section	.debug_line,"",%progbits
 530              	.Ldebug_line0:
 531 0000 92000000 		.section	.debug_str,"MS",%progbits,1
 531      02004400 
 531      00000201 
 531      FB0E0D00 
 531      01010101 
 532              	.LASF22:
 533 0000 483A5C63 		.ascii	"H:\\compsys 301\\CS301_Class.cydsn\000"
 533      6F6D7073 
 533      79732033 
 533      30315C43 
ARM GAS  C:\Users\claw541\AppData\Local\Temp\cczhQpB8.s 			page 13


 533      53333031 
 534              	.LASF16:
 535 0021 76616C75 		.ascii	"value\000"
 535      6500
 536              	.LASF23:
 537 0027 73746174 		.ascii	"staticBits\000"
 537      69634269 
 537      747300
 538              	.LASF20:
 539 0032 474E5520 		.ascii	"GNU C 4.9.3 20150303 (release) [ARM/embedded-4_9-br"
 539      4320342E 
 539      392E3320 
 539      32303135 
 539      30333033 
 540 0065 616E6368 		.ascii	"anch revision 221220] -mcpu=cortex-m3 -mthumb -g -O"
 540      20726576 
 540      6973696F 
 540      6E203232 
 540      31323230 
 541 0098 30202D66 		.ascii	"0 -ffunction-sections -ffat-lto-objects\000"
 541      66756E63 
 541      74696F6E 
 541      2D736563 
 541      74696F6E 
 542              	.LASF9:
 543 00c0 666C6F61 		.ascii	"float\000"
 543      7400
 544              	.LASF1:
 545 00c6 756E7369 		.ascii	"unsigned char\000"
 545      676E6564 
 545      20636861 
 545      7200
 546              	.LASF15:
 547 00d4 4D325F44 		.ascii	"M2_D1_SetDriveMode\000"
 547      315F5365 
 547      74447269 
 547      76654D6F 
 547      646500
 548              	.LASF13:
 549 00e7 72656738 		.ascii	"reg8\000"
 549      00
 550              	.LASF5:
 551 00ec 6C6F6E67 		.ascii	"long unsigned int\000"
 551      20756E73 
 551      69676E65 
 551      6420696E 
 551      7400
 552              	.LASF3:
 553 00fe 73686F72 		.ascii	"short unsigned int\000"
 553      7420756E 
 553      7369676E 
 553      65642069 
 553      6E7400
 554              	.LASF10:
 555 0111 646F7562 		.ascii	"double\000"
 555      6C6500
 556              	.LASF18:
ARM GAS  C:\Users\claw541\AppData\Local\Temp\cczhQpB8.s 			page 14


 557 0118 4D325F44 		.ascii	"M2_D1_Read\000"
 557      315F5265 
 557      616400
 558              	.LASF2:
 559 0123 73686F72 		.ascii	"short int\000"
 559      7420696E 
 559      7400
 560              	.LASF19:
 561 012d 4D325F44 		.ascii	"M2_D1_ReadDataReg\000"
 561      315F5265 
 561      61644461 
 561      74615265 
 561      6700
 562              	.LASF8:
 563 013f 756E7369 		.ascii	"unsigned int\000"
 563      676E6564 
 563      20696E74 
 563      00
 564              	.LASF7:
 565 014c 6C6F6E67 		.ascii	"long long unsigned int\000"
 565      206C6F6E 
 565      6720756E 
 565      7369676E 
 565      65642069 
 566              	.LASF17:
 567 0163 6D6F6465 		.ascii	"mode\000"
 567      00
 568              	.LASF6:
 569 0168 6C6F6E67 		.ascii	"long long int\000"
 569      206C6F6E 
 569      6720696E 
 569      7400
 570              	.LASF11:
 571 0176 63686172 		.ascii	"char\000"
 571      00
 572              	.LASF21:
 573 017b 2E5C4765 		.ascii	".\\Generated_Source\\PSoC5\\M2_D1.c\000"
 573      6E657261 
 573      7465645F 
 573      536F7572 
 573      63655C50 
 574              	.LASF12:
 575 019c 75696E74 		.ascii	"uint8\000"
 575      3800
 576              	.LASF4:
 577 01a2 6C6F6E67 		.ascii	"long int\000"
 577      20696E74 
 577      00
 578              	.LASF0:
 579 01ab 7369676E 		.ascii	"signed char\000"
 579      65642063 
 579      68617200 
 580              	.LASF14:
 581 01b7 4D325F44 		.ascii	"M2_D1_Write\000"
 581      315F5772 
 581      69746500 
 582              		.ident	"GCC: (GNU Tools for ARM Embedded Processors) 4.9.3 20150303 (release) [ARM/embedded-4_9-br
ARM GAS  C:\Users\claw541\AppData\Local\Temp\cczhQpB8.s 			page 15


